dplyr_exo
…
Exercise 2

Question 1:

bank %>% filter(age>50)

# A tibble: 9,255 × 17
     age job       marital education default balance housing loan  contact   day
   <dbl> <chr>     <chr>   <chr>     <chr>     <dbl> <chr>   <chr> <chr>   <dbl>
 1    58 manageme… married tertiary  no         2143 yes     no    unknown     5
 2    58 retired   married primary   no          121 yes     no    unknown     5
 3    53 technici… married secondary no            6 yes     no    unknown     5
 4    58 technici… married unknown   no           71 yes     no    unknown     5
 5    57 services  married secondary no          162 yes     no    unknown     5
 6    51 retired   married primary   no          229 yes     no    unknown     5
 7    57 blue-col… married primary   no           52 yes     no    unknown     5
 8    60 retired   married primary   no           60 yes     no    unknown     5
 9    56 manageme… married tertiary  no          779 yes     no    unknown     5
10    52 entrepre… married secondary no          113 yes     yes   unknown     5
# ℹ 9,245 more rows
# ℹ 7 more variables: month <chr>, duration <dbl>, campaign <dbl>, pdays <dbl>,
#   previous <dbl>, poutcome <chr>, y <chr>

Question 2:

bank %>% filter(marital== "married" & education== "secondary")

# A tibble: 13,770 × 17
     age job       marital education default balance housing loan  contact   day
   <dbl> <chr>     <chr>   <chr>     <chr>     <dbl> <chr>   <chr> <chr>   <dbl>
 1    33 entrepre… married secondary no            2 yes     yes   unknown     5
 2    53 technici… married secondary no            6 yes     no    unknown     5
 3    57 services  married secondary no          162 yes     no    unknown     5
 4    33 services  married secondary no            0 yes     no    unknown     5
 5    28 blue-col… married secondary no          723 yes     yes   unknown     5
 6    25 services  married secondary no           50 yes     no    unknown     5
 7    44 admin.    married secondary no         -372 yes     no    unknown     5
 8    52 entrepre… married secondary no          113 yes     yes   unknown     5
 9    57 technici… married secondary no          839 no      yes   unknown     5
10    60 admin.    married secondary no           39 yes     yes   unknown     5
# ℹ 13,760 more rows
# ℹ 7 more variables: month <chr>, duration <dbl>, campaign <dbl>, pdays <dbl>,
#   previous <dbl>, poutcome <chr>, y <chr>
…
